[3.723332672555025, 4.960417220331717, 2.925434223811687, 8.716635126764858, 1.626414270642501, 8.740880790590104, 5.621255540302812, 0.42863574203721, 2.6330594029993826, 6.682657759319213, 1.6126348378141164, 4.267865369672005, 8.170621927988362, 5.55444059476787, 9.303683886788175, 6.146982847699882, 9.13149324699783, 8.461331314752835, 4.859893594579781, 5.252517786403489, 7.192225763914877, 9.684780262764273, 5.021040097208612, 9.816497862580363, 0.5732416169157473, 3.6793730129218547, 7.91134763069893, 5.573516282133158, 6.501391603806363, 7.170859411598664, 8.664837971405714, 6.692366382473666, 8.389590124998675, 2.2549034614847354, 1.967002203898457, 8.70769290206357, 3.062196186417867, 1.413604827739099, 5.4596345371455, 1.7759397162589785, 2.2317694796508647, 2.4469243984089903, 6.363868354797245, 0.4412030347922069, 2.8722837248657997, 2.4587211712000254, 8.647158805863066, 3.020425537585496, 3.135828164559503, 5.242192753285407, 9.593162080863433, 9.703694715460724, 4.024284999012853, 5.677080128055456, 2.729157899744691, 3.5142395688261283, 2.1544250776272866, 8.081082888166929, 8.723874887512789, 2.3840447108772276, 5.644310045592485, 2.8505083769688966, 7.089270433713088, 3.774830551080657, 3.4008527676502984, 7.180250696637368, 9.303029045807381, 5.5104766392518325, 7.9028303180427955, 1.1707822556187142, 8.314241692494267, 7.78579198335574, 2.9506050731748523, 0.209911786951833, 0.30293002939690616, 1.6778679207768377, 0.7932595197499248, 8.159643010615076, 2.0347911568839514, 8.910070873046601, 7.5458007700457195, 3.5835479494946574, 1.185727895539963, 6.105065803580799, 1.8735492061882353, 3.0176450616413053, 7.606447142909449, 4.312090035585832, 9.547776212515547, 1.1178506326238757, 0.6556012004347223, 1.2050173986426371, 5.666106795035454, 7.409650194840318, 1.4506573943713486, 9.021592173727388, 7.083160586084636, 3.320717042758321, 9.16887633128335, 6.050530615433821]
sample0,3.5835479494946574,1.185727895539963,6.105065803580799,1.8735492061882353,3.0176450616413053,7.606447142909449,4.312090035585832,9.547776212515547,1.1178506326238757,0.6556012004347223,1.2050173986426371,5.666106795035454,7.409650194840318
sample1,3.5142395688261283,2.1544250776272866,8.081082888166929,8.723874887512789,2.3840447108772276,5.644310045592485,2.8505083769688966,7.089270433713088,3.774830551080657,3.4008527676502984,7.180250696637368
sample2,5.021040097208612,9.816497862580363,0.5732416169157473,3.6793730129218547,7.91134763069893,5.573516282133158,6.501391603806363,7.170859411598664,8.664837971405714,6.692366382473666
sample3,7.5458007700457195,3.5835479494946574,1.185727895539963,6.105065803580799,1.8735492061882353,3.0176450616413053,7.606447142909449,4.312090035585832
sample4,2.8505083769688966,7.089270433713088,3.774830551080657,3.4008527676502984,7.180250696637368,9.303029045807381,5.5104766392518325,7.9028303180427955,1.1707822556187142,8.314241692494267
sample5,9.303029045807381,5.5104766392518325,7.9028303180427955,1.1707822556187142,8.314241692494267,7.78579198335574,2.9506050731748523,0.209911786951833,0.30293002939690616
sample6,5.573516282133158,6.501391603806363,7.170859411598664,8.664837971405714,6.692366382473666,8.389590124998675,2.2549034614847354,1.967002203898457,8.70769290206357
sample7,5.677080128055456,2.729157899744691,3.5142395688261283,2.1544250776272866,8.081082888166929,8.723874887512789,2.3840447108772276,5.644310045592485,2.8505083769688966,7.089270433713088,3.774830551080657,3.4008527676502984,7.180250696637368,9.303029045807381
sample8,5.55444059476787,9.303683886788175,6.146982847699882,9.13149324699783,8.461331314752835,4.859893594579781,5.252517786403489,7.192225763914877
sample9,1.413604827739099,5.4596345371455,1.7759397162589785,2.2317694796508647,2.4469243984089903,6.363868354797245,0.4412030347922069,2.8722837248657997
sample10,8.314241692494267,7.78579198335574,2.9506050731748523,0.209911786951833,0.30293002939690616,1.6778679207768377,0.7932595197499248
sample11,3.062196186417867,1.413604827739099,5.4596345371455,1.7759397162589785,2.2317694796508647,2.4469243984089903,6.363868354797245,0.4412030347922069,2.8722837248657997
sample12,8.740880790590104,5.621255540302812,0.42863574203721,2.6330594029993826,6.682657759319213,1.6126348378141164,4.267865369672005,8.170621927988362
sample13,7.180250696637368,9.303029045807381,5.5104766392518325,7.9028303180427955,1.1707822556187142,8.314241692494267,7.78579198335574
sample14,1.8735492061882353,3.0176450616413053,7.606447142909449,4.312090035585832,9.547776212515547,1.1178506326238757,0.6556012004347223,1.2050173986426371,5.666106795035454,7.409650194840318,1.4506573943713486
sample15,6.146982847699882,9.13149324699783,8.461331314752835,4.859893594579781,5.252517786403489,7.192225763914877,9.684780262764273,5.021040097208612,9.816497862580363,0.5732416169157473,3.6793730129218547,7.91134763069893,5.573516282133158,6.501391603806363
sample16,8.170621927988362,5.55444059476787,9.303683886788175,6.146982847699882,9.13149324699783,8.461331314752835,4.859893594579781,5.252517786403489,7.192225763914877
sample17,2.3840447108772276,5.644310045592485,2.8505083769688966,7.089270433713088,3.774830551080657,3.4008527676502984,7.180250696637368,9.303029045807381,5.5104766392518325,7.9028303180427955,1.1707822556187142
sample18,2.1544250776272866,8.081082888166929,8.723874887512789,2.3840447108772276,5.644310045592485,2.8505083769688966,7.089270433713088,3.774830551080657,3.4008527676502984,7.180250696637368,9.303029045807381,5.5104766392518325,7.9028303180427955
sample19,2.3840447108772276,5.644310045592485,2.8505083769688966,7.089270433713088,3.774830551080657,3.4008527676502984,7.180250696637368,9.303029045807381,5.5104766392518325,7.9028303180427955,1.1707822556187142
sample20,2.1544250776272866,8.081082888166929,8.723874887512789,2.3840447108772276,5.644310045592485,2.8505083769688966,7.089270433713088,3.774830551080657,3.4008527676502984,7.180250696637368,9.303029045807381
sample21,0.4412030347922069,2.8722837248657997,2.4587211712000254,8.647158805863066,3.020425537585496,3.135828164559503,5.242192753285407,9.593162080863433,9.703694715460724,4.024284999012853,5.677080128055456,2.729157899744691,3.5142395688261283
sample22,3.4008527676502984,7.180250696637368,9.303029045807381,5.5104766392518325,7.9028303180427955,1.1707822556187142,8.314241692494267,7.78579198335574
sample23,1.6126348378141164,4.267865369672005,8.170621927988362,5.55444059476787,9.303683886788175,6.146982847699882,9.13149324699783,8.461331314752835,4.859893594579781,5.252517786403489,7.192225763914877,9.684780262764273,5.021040097208612
sample24,5.55444059476787,9.303683886788175,6.146982847699882,9.13149324699783,8.461331314752835,4.859893594579781,5.252517786403489,7.192225763914877,9.684780262764273
sample25,7.9028303180427955,1.1707822556187142,8.314241692494267,7.78579198335574,2.9506050731748523,0.209911786951833,0.30293002939690616
sample26,5.4596345371455,1.7759397162589785,2.2317694796508647,2.4469243984089903,6.363868354797245,0.4412030347922069,2.8722837248657997,2.4587211712000254,8.647158805863066,3.020425537585496,3.135828164559503
sample27,6.501391603806363,7.170859411598664,8.664837971405714,6.692366382473666,8.389590124998675,2.2549034614847354,1.967002203898457,8.70769290206357,3.062196186417867,1.413604827739099
sample28,7.089270433713088,3.774830551080657,3.4008527676502984,7.180250696637368,9.303029045807381,5.5104766392518325,7.9028303180427955,1.1707822556187142
sample29,1.967002203898457,8.70769290206357,3.062196186417867,1.413604827739099,5.4596345371455,1.7759397162589785,2.2317694796508647,2.4469243984089903,6.363868354797245
sample30,2.1544250776272866,8.081082888166929,8.723874887512789,2.3840447108772276,5.644310045592485,2.8505083769688966,7.089270433713088,3.774830551080657
sample31,5.55444059476787,9.303683886788175,6.146982847699882,9.13149324699783,8.461331314752835,4.859893594579781,5.252517786403489,7.192225763914877,9.684780262764273,5.021040097208612,9.816497862580363,0.5732416169157473,3.6793730129218547,7.91134763069893
sample32,5.55444059476787,9.303683886788175,6.146982847699882,9.13149324699783,8.461331314752835,4.859893594579781,5.252517786403489,7.192225763914877,9.684780262764273,5.021040097208612,9.816497862580363
sample33,6.105065803580799,1.8735492061882353,3.0176450616413053,7.606447142909449,4.312090035585832,9.547776212515547,1.1178506326238757,0.6556012004347223,1.2050173986426371
sample34,2.6330594029993826,6.682657759319213,1.6126348378141164,4.267865369672005,8.170621927988362,5.55444059476787,9.303683886788175,6.146982847699882
sample35,4.267865369672005,8.170621927988362,5.55444059476787,9.303683886788175,6.146982847699882,9.13149324699783,8.461331314752835,4.859893594579781,5.252517786403489,7.192225763914877,9.684780262764273,5.021040097208612
sample36,5.644310045592485,2.8505083769688966,7.089270433713088,3.774830551080657,3.4008527676502984,7.180250696637368,9.303029045807381
sample37,3.6793730129218547,7.91134763069893,5.573516282133158,6.501391603806363,7.170859411598664,8.664837971405714,6.692366382473666,8.389590124998675,2.2549034614847354,1.967002203898457,8.70769290206357,3.062196186417867
sample38,8.70769290206357,3.062196186417867,1.413604827739099,5.4596345371455,1.7759397162589785,2.2317694796508647,2.4469243984089903,6.363868354797245,0.4412030347922069,2.8722837248657997,2.4587211712000254,8.647158805863066,3.020425537585496,3.135828164559503
sample39,2.9506050731748523,0.209911786951833,0.30293002939690616,1.6778679207768377,0.7932595197499248,8.159643010615076,2.0347911568839514,8.910070873046601,7.5458007700457195,3.5835479494946574,1.185727895539963,6.105065803580799,1.8735492061882353
sample40,5.621255540302812,0.42863574203721,2.6330594029993826,6.682657759319213,1.6126348378141164,4.267865369672005,8.170621927988362,5.55444059476787,9.303683886788175,6.146982847699882,9.13149324699783
sample41,8.664837971405714,6.692366382473666,8.389590124998675,2.2549034614847354,1.967002203898457,8.70769290206357,3.062196186417867,1.413604827739099,5.4596345371455
sample42,1.6778679207768377,0.7932595197499248,8.159643010615076,2.0347911568839514,8.910070873046601,7.5458007700457195,3.5835479494946574,1.185727895539963,6.105065803580799
sample43,7.9028303180427955,1.1707822556187142,8.314241692494267,7.78579198335574,2.9506050731748523,0.209911786951833,0.30293002939690616,1.6778679207768377,0.7932595197499248,8.159643010615076
sample44,1.1707822556187142,8.314241692494267,7.78579198335574,2.9506050731748523,0.209911786951833,0.30293002939690616,1.6778679207768377,0.7932595197499248,8.159643010615076,2.0347911568839514,8.910070873046601,7.5458007700457195
sample45,2.0347911568839514,8.910070873046601,7.5458007700457195,3.5835479494946574,1.185727895539963,6.105065803580799,1.8735492061882353,3.0176450616413053,7.606447142909449
sample46,8.314241692494267,7.78579198335574,2.9506050731748523,0.209911786951833,0.30293002939690616,1.6778679207768377,0.7932595197499248,8.159643010615076,2.0347911568839514,8.910070873046601,7.5458007700457195,3.5835479494946574,1.185727895539963
sample47,1.413604827739099,5.4596345371455,1.7759397162589785,2.2317694796508647,2.4469243984089903,6.363868354797245,0.4412030347922069,2.8722837248657997,2.4587211712000254,8.647158805863066,3.020425537585496,3.135828164559503,5.242192753285407,9.593162080863433
sample48,7.170859411598664,8.664837971405714,6.692366382473666,8.389590124998675,2.2549034614847354,1.967002203898457,8.70769290206357,3.062196186417867,1.413604827739099,5.4596345371455,1.7759397162589785,2.2317694796508647,2.4469243984089903
sample49,6.682657759319213,1.6126348378141164,4.267865369672005,8.170621927988362,5.55444059476787,9.303683886788175,6.146982847699882,9.13149324699783,8.461331314752835,4.859893594579781,5.252517786403489,7.192225763914877,9.684780262764273
sample50,9.703694715460724,4.024284999012853,5.677080128055456,2.729157899744691,3.5142395688261283,2.1544250776272866,8.081082888166929,8.723874887512789,2.3840447108772276,5.644310045592485,2.8505083769688966
sample51,0.209911786951833,0.30293002939690616,1.6778679207768377,0.7932595197499248,8.159643010615076,2.0347911568839514,8.910070873046601,7.5458007700457195,3.5835479494946574,1.185727895539963
sample52,5.5104766392518325,7.9028303180427955,1.1707822556187142,8.314241692494267,7.78579198335574,2.9506050731748523,0.209911786951833,0.30293002939690616
sample53,0.5732416169157473,3.6793730129218547,7.91134763069893,5.573516282133158,6.501391603806363,7.170859411598664,8.664837971405714,6.692366382473666,8.389590124998675
