Sample output file
sample1,7,2,10,3,6,13,8,16,2,1,2,10,12
sample2,7,4,13,15,4,10,5,11,7,7,12
sample3,8,17,1,7,13,9,11,12,15,11
sample4,12,7,2,10,3,6,13,8
sample5,5,11,7,7,12,16,9,13,2,14
sample6,16,9,13,2,14,13,6,1,1
sample7,9,11,12,15,11,14,4,4,15
sample8,10,5,7,4,13,15,4,10,5,11,7,7,12,16
sample9,9,16,10,16,15,8,8,12
sample10,3,9,3,4,5,11,1,5
sample11,14,13,6,1,1,3,2
sample12,6,3,9,3,4,5,11,1,5
sample13,15,9,1,5,11,3,8,14
sample14,12,16,9,13,2,14,13
sample15,3,6,13,8,16,2,1,2,10,12,3
sample16,10,16,15,8,8,12,16,8,17,1,7,13,9,11
sample17,14,9,16,10,16,15,8,8,12
sample18,4,10,5,11,7,7,12,16,9,13,2
sample19,4,13,15,4,10,5,11,7,7,12,16,9,13
sample20,4,10,5,11,7,7,12,16,9,13,2
sample21,4,13,15,4,10,5,11,7,7,12,16
sample22,1,5,5,15,6,6,8,16,16,7,10,5,7
sample23,7,12,16,9,13,2,14,13
sample24,3,8,14,9,16,10,16,15,8,8,12,16,8
sample25,9,16,10,16,15,8,8,12,16
sample26,13,2,14,13,6,1,1
sample27,9,3,4,5,11,1,5,5,15,6,6
sample28,11,12,15,11,14,4,4,15,6,3
sample29,11,7,7,12,16,9,13,2
sample30,4,15,6,3,9,3,4,5,11
sample31,4,13,15,4,10,5,11,7
sample32,9,16,10,16,15,8,8,12,16,8,17,1,7,13
sample33,9,16,10,16,15,8,8,12,16,8,17
sample34,10,3,6,13,8,16,2,1,2
sample35,5,11,3,8,14,9,16,10
sample36,8,14,9,16,10,16,15,8,8,12,16,8
sample37,10,5,11,7,7,12,16
sample38,7,13,9,11,12,15,11,14,4,4,15,6
sample39,15,6,3,9,3,4,5,11,1,5,5,15,6,6
sample40,6,1,1,3,2,14,4,15,12,7,2,10,3
sample41,9,1,5,11,3,8,14,9,16,10,16
sample42,15,11,14,4,4,15,6,3,9
sample43,3,2,14,4,15,12,7,2,10
sample44,13,2,14,13,6,1,1,3,2,14
sample45,2,14,13,6,1,1,3,2,14,4,15,12
sample46,4,15,12,7,2,10,3,6,13
sample47,14,13,6,1,1,3,2,14,4,15,12,7,2
sample48,3,9,3,4,5,11,1,5,5,15,6,6,8,16
sample49,12,15,11,14,4,4,15,6,3,9,3,4,5
sample50,11,3,8,14,9,16,10,16,15,8,8,12,16
sample51,16,7,10,5,7,4,13,15,4,10,5
sample52,1,1,3,2,14,4,15,12,7,2
sample53,9,13,2,14,13,6,1,1
sample54,1,7,13,9,11,12,15,11,14