[3.2196708056510994, 8.645277199036942, 4.674308591112891, 1.5343397299775574, 0.12916230917600857, 0.444912926528116, 5.255698629815947, 3.5711073443591266, 4.305281313892369, 8.472766676349044, 9.203276247446812, 2.4551377583126643, 3.2975659093859377, 5.385601913526434, 5.82224627105817, 1.9110525281336277, 0.016285685654733317, 2.5889732365319276, 2.192130607850528, 0.05785926144318165, 1.593523796874996, 6.901839308541389, 1.2343239022620256, 1.3199593228764495, 9.096246851776685, 7.758598678306803, 2.014841988376259, 5.128176361410958, 2.6375600749026864, 0.5811804656858777, 3.2396015351274454, 2.7123737888508046, 0.5827460509735316, 2.744833357739246, 8.95620414262318, 4.234509094037304, 6.009567964634735, 2.164772549318721, 8.8453477469256, 7.270724343488867, 8.35771715072082, 4.946863528104808, 4.166617212080076, 4.223349487596792, 3.2901685343786524, 7.774032921248181, 4.417560327633111, 0.6284522666430492, 9.189600305833899, 2.7411128041268262, 9.071581890192293, 8.521838524327174, 4.425926255503551, 7.204345176189958, 3.3793404749082487, 9.036173941972967, 5.556380144519637, 8.877781492155842, 7.149968173849992, 6.224155302562581, 2.957475939116482, 6.887333977972321, 0.6725717685641774, 9.737438417712633, 7.038570281662139, 2.7842475651129495, 2.4951213681894933, 7.4382820758668355, 5.149629353888634, 1.6232801842571298, 9.646967577633006, 0.28064182115279834, 6.571206890426854, 2.126888776935525, 2.072867451806059, 0.8697093298314573, 0.562520772969437, 6.685241957123589, 9.540549994320878, 3.993660943484323, 0.34391201435786, 6.4828905149115235, 1.0904789036479634, 2.118639730037776, 4.102856099597457, 4.396441335626724, 4.215621340244635, 1.3477699880290428, 2.6380931508488037, 8.473603280483363, 3.390667792555967, 3.667257262516106, 2.0943263839679926, 1.7824802540438767, 5.3142902216631915, 9.437402574986624, 9.390336882435843, 0.2110083619372749, 1.2846628348755118, 0.033621070753677706]
sample0,1.3199593228764495,9.096246851776685,7.758598678306803,2.014841988376259,5.128176361410958,2.6375600749026864,0.5811804656858777,3.2396015351274454,2.7123737888508046,0.5827460509735316,2.744833357739246
sample1,5.385601913526434,5.82224627105817,1.9110525281336277,0.016285685654733317,2.5889732365319276,2.192130607850528,0.05785926144318165,1.593523796874996,6.901839308541389,1.2343239022620256
sample2,7.758598678306803,2.014841988376259,5.128176361410958,2.6375600749026864,0.5811804656858777,3.2396015351274454,2.7123737888508046,0.5827460509735316,2.744833357739246,8.95620414262318,4.234509094037304,6.009567964634735,2.164772549318721,8.8453477469256
sample3,5.556380144519637,8.877781492155842,7.149968173849992,6.224155302562581,2.957475939116482,6.887333977972321,0.6725717685641774,9.737438417712633,7.038570281662139,2.7842475651129495,2.4951213681894933
sample4,0.05785926144318165,1.593523796874996,6.901839308541389,1.2343239022620256,1.3199593228764495,9.096246851776685,7.758598678306803,2.014841988376259,5.128176361410958,2.6375600749026864
sample5,8.8453477469256,7.270724343488867,8.35771715072082,4.946863528104808,4.166617212080076,4.223349487596792,3.2901685343786524,7.774032921248181,4.417560327633111,0.6284522666430492,9.189600305833899,2.7411128041268262
sample6,2.7411128041268262,9.071581890192293,8.521838524327174,4.425926255503551,7.204345176189958,3.3793404749082487,9.036173941972967,5.556380144519637,8.877781492155842
sample7,8.521838524327174,4.425926255503551,7.204345176189958,3.3793404749082487,9.036173941972967,5.556380144519637,8.877781492155842,7.149968173849992,6.224155302562581,2.957475939116482,6.887333977972321,0.6725717685641774,9.737438417712633,7.038570281662139
sample8,3.2196708056510994,8.645277199036942,4.674308591112891,1.5343397299775574,0.12916230917600857,0.444912926528116,5.255698629815947
sample9,4.305281313892369,8.472766676349044,9.203276247446812,2.4551377583126643,3.2975659093859377,5.385601913526434,5.82224627105817
sample10,0.12916230917600857,0.444912926528116,5.255698629815947,3.5711073443591266,4.305281313892369,8.472766676349044,9.203276247446812,2.4551377583126643,3.2975659093859377,5.385601913526434,5.82224627105817,1.9110525281336277
sample11,9.737438417712633,7.038570281662139,2.7842475651129495,2.4951213681894933,7.4382820758668355,5.149629353888634,1.6232801842571298,9.646967577633006
sample12,1.2343239022620256,1.3199593228764495,9.096246851776685,7.758598678306803,2.014841988376259,5.128176361410958,2.6375600749026864,0.5811804656858777,3.2396015351274454,2.7123737888508046,0.5827460509735316,2.744833357739246,8.95620414262318
sample13,0.8697093298314573,0.562520772969437,6.685241957123589,9.540549994320878,3.993660943484323,0.34391201435786,6.4828905149115235,1.0904789036479634,2.118639730037776
sample14,9.071581890192293,8.521838524327174,4.425926255503551,7.204345176189958,3.3793404749082487,9.036173941972967,5.556380144519637,8.877781492155842,7.149968173849992,6.224155302562581,2.957475939116482,6.887333977972321
sample15,2.5889732365319276,2.192130607850528,0.05785926144318165,1.593523796874996,6.901839308541389,1.2343239022620256,1.3199593228764495
sample16,6.4828905149115235,1.0904789036479634,2.118639730037776,4.102856099597457,4.396441335626724,4.215621340244635,1.3477699880290428,2.6380931508488037,8.473603280483363,3.390667792555967,3.667257262516106,2.0943263839679926,1.7824802540438767,5.3142902216631915
sample17,7.270724343488867,8.35771715072082,4.946863528104808,4.166617212080076,4.223349487596792,3.2901685343786524,7.774032921248181,4.417560327633111,0.6284522666430492,9.189600305833899,2.7411128041268262
sample18,4.102856099597457,4.396441335626724,4.215621340244635,1.3477699880290428,2.6380931508488037,8.473603280483363,3.390667792555967,3.667257262516106,2.0943263839679926
sample19,2.6375600749026864,0.5811804656858777,3.2396015351274454,2.7123737888508046,0.5827460509735316,2.744833357739246,8.95620414262318,4.234509094037304,6.009567964634735,2.164772549318721
sample20,4.234509094037304,6.009567964634735,2.164772549318721,8.8453477469256,7.270724343488867,8.35771715072082,4.946863528104808,4.166617212080076
sample21,5.385601913526434,5.82224627105817,1.9110525281336277,0.016285685654733317,2.5889732365319276,2.192130607850528,0.05785926144318165,1.593523796874996,6.901839308541389,1.2343239022620256,1.3199593228764495,9.096246851776685,7.758598678306803,2.014841988376259
sample22,2.744833357739246,8.95620414262318,4.234509094037304,6.009567964634735,2.164772549318721,8.8453477469256,7.270724343488867
sample23,2.7411128041268262,9.071581890192293,8.521838524327174,4.425926255503551,7.204345176189958,3.3793404749082487,9.036173941972967,5.556380144519637,8.877781492155842
sample24,3.3793404749082487,9.036173941972967,5.556380144519637,8.877781492155842,7.149968173849992,6.224155302562581,2.957475939116482
sample25,2.192130607850528,0.05785926144318165,1.593523796874996,6.901839308541389,1.2343239022620256,1.3199593228764495,9.096246851776685,7.758598678306803,2.014841988376259
sample26,6.4828905149115235,1.0904789036479634,2.118639730037776,4.102856099597457,4.396441335626724,4.215621340244635,1.3477699880290428,2.6380931508488037
sample27,6.901839308541389,1.2343239022620256,1.3199593228764495,9.096246851776685,7.758598678306803,2.014841988376259,5.128176361410958,2.6375600749026864,0.5811804656858777,3.2396015351274454,2.7123737888508046,0.5827460509735316,2.744833357739246
sample28,0.34391201435786,6.4828905149115235,1.0904789036479634,2.118639730037776,4.102856099597457,4.396441335626724,4.215621340244635,1.3477699880290428,2.6380931508488037,8.473603280483363
sample29,2.118639730037776,4.102856099597457,4.396441335626724,4.215621340244635,1.3477699880290428,2.6380931508488037,8.473603280483363,3.390667792555967
sample30,0.5827460509735316,2.744833357739246,8.95620414262318,4.234509094037304,6.009567964634735,2.164772549318721,8.8453477469256,7.270724343488867,8.35771715072082,4.946863528104808
sample31,1.2343239022620256,1.3199593228764495,9.096246851776685,7.758598678306803,2.014841988376259,5.128176361410958,2.6375600749026864,0.5811804656858777,3.2396015351274454,2.7123737888508046,0.5827460509735316,2.744833357739246,8.95620414262318
sample32,6.887333977972321,0.6725717685641774,9.737438417712633,7.038570281662139,2.7842475651129495,2.4951213681894933,7.4382820758668355,5.149629353888634,1.6232801842571298,9.646967577633006,0.28064182115279834,6.571206890426854
sample33,7.774032921248181,4.417560327633111,0.6284522666430492,9.189600305833899,2.7411128041268262,9.071581890192293,8.521838524327174,4.425926255503551,7.204345176189958,3.3793404749082487,9.036173941972967,5.556380144519637,8.877781492155842
sample34,5.82224627105817,1.9110525281336277,0.016285685654733317,2.5889732365319276,2.192130607850528,0.05785926144318165,1.593523796874996,6.901839308541389,1.2343239022620256
sample35,4.305281313892369,8.472766676349044,9.203276247446812,2.4551377583126643,3.2975659093859377,5.385601913526434,5.82224627105817,1.9110525281336277
sample36,1.6232801842571298,9.646967577633006,0.28064182115279834,6.571206890426854,2.126888776935525,2.072867451806059,0.8697093298314573,0.562520772969437,6.685241957123589
sample37,7.758598678306803,2.014841988376259,5.128176361410958,2.6375600749026864,0.5811804656858777,3.2396015351274454,2.7123737888508046,0.5827460509735316,2.744833357739246
sample38,5.149629353888634,1.6232801842571298,9.646967577633006,0.28064182115279834,6.571206890426854,2.126888776935525,2.072867451806059,0.8697093298314573,0.562520772969437
sample39,6.4828905149115235,1.0904789036479634,2.118639730037776,4.102856099597457,4.396441335626724,4.215621340244635,1.3477699880290428,2.6380931508488037
sample40,5.128176361410958,2.6375600749026864,0.5811804656858777,3.2396015351274454,2.7123737888508046,0.5827460509735316,2.744833357739246,8.95620414262318,4.234509094037304,6.009567964634735,2.164772549318721,8.8453477469256
sample41,9.036173941972967,5.556380144519637,8.877781492155842,7.149968173849992,6.224155302562581,2.957475939116482,6.887333977972321,0.6725717685641774
sample42,2.6375600749026864,0.5811804656858777,3.2396015351274454,2.7123737888508046,0.5827460509735316,2.744833357739246,8.95620414262318
sample43,7.4382820758668355,5.149629353888634,1.6232801842571298,9.646967577633006,0.28064182115279834,6.571206890426854,2.126888776935525,2.072867451806059,0.8697093298314573,0.562520772969437,6.685241957123589,9.540549994320878,3.993660943484323
sample44,7.204345176189958,3.3793404749082487,9.036173941972967,5.556380144519637,8.877781492155842,7.149968173849992,6.224155302562581,2.957475939116482,6.887333977972321,0.6725717685641774,9.737438417712633,7.038570281662139,2.7842475651129495,2.4951213681894933
sample45,1.9110525281336277,0.016285685654733317,2.5889732365319276,2.192130607850528,0.05785926144318165,1.593523796874996,6.901839308541389,1.2343239022620256,1.3199593228764495,9.096246851776685,7.758598678306803,2.014841988376259,5.128176361410958
sample46,9.203276247446812,2.4551377583126643,3.2975659093859377,5.385601913526434,5.82224627105817,1.9110525281336277,0.016285685654733317
sample47,0.5827460509735316,2.744833357739246,8.95620414262318,4.234509094037304,6.009567964634735,2.164772549318721,8.8453477469256,7.270724343488867,8.35771715072082,4.946863528104808,4.166617212080076,4.223349487596792
