[7.629131784073541, 6.532202930221343, 5.6204377058564905, 2.951367328237593, 2.687522132185177, 1.4169250630254204, 6.042060384378693, 5.067243613080674, 2.5033335886397765, 1.255598970638342, 5.230876711129443, 7.239167088113961, 9.160545063818068, 6.420642383941652, 2.6353850086189343, 4.673300951272321, 9.849797965024207, 0.037376970637529316, 1.2829082891319799, 4.57645539039577, 9.013261178273883, 0.9213312512898375, 7.566788679324671, 5.9058345751138885, 3.2943737272653975, 1.521122831971119, 0.9016040809214443, 7.3947772668619525, 2.0149435584063413, 6.257848573319608, 0.07532285829189744, 2.9221840100141225, 8.56808573130328, 0.5835561511159637, 5.949584117307384, 4.63120168948953, 3.594009531106023, 1.3255069401749642, 0.7940489296897657, 5.853143776404358, 9.09666919422224, 4.439580788388194, 2.9880416144024635, 7.855497758413877, 3.76281966950331, 7.165318935219588, 2.0824601101749773, 6.708276822514973, 3.6610237606693397, 7.756735081522651, 3.287202912737933, 9.150851518640561, 9.226680345625525, 7.457169979051087, 2.3341235957315387, 9.241799099285497, 8.980155491112544, 6.193104444114745, 1.3627919732675253, 0.7871847768622098, 2.7786137799686115, 5.580985072931507, 3.986105001111423, 4.06809808299855, 2.568165596125167, 0.27275838151724296, 3.015055618803123, 9.226138221056457, 6.581456889487659, 1.4099517163704334, 7.456736588958148, 2.815948535515609, 3.716849695518839, 4.012773994037339, 6.3469161774912575, 8.496783715991276, 8.43885146485628, 3.499859820733844, 5.738294697250082, 7.610484507908682, 2.955470077295701, 5.215908819590389, 1.7378119637047051, 0.48112546961053493, 2.6566882450978566, 4.83862394835309, 6.871143913337768, 4.6719955712316565, 2.839262425562168, 6.842986054231156, 9.2497891982202, 2.1484542728738654, 9.59656928308383, 2.820046538338782, 4.025916755973337, 3.3206054606615476, 5.4182421000781495, 1.3790547792014884, 4.442406920643628, 2.2776160726455608]
sample0,9.241799099285497,8.980155491112544,6.193104444114745,1.3627919732675253,0.7871847768622098,2.7786137799686115,5.580985072931507,3.986105001111423,4.06809808299855,2.568165596125167,0.27275838151724296,3.015055618803123,9.226138221056457,6.581456889487659
sample1,3.2943737272653975,1.521122831971119,0.9016040809214443,7.3947772668619525,2.0149435584063413,6.257848573319608,0.07532285829189744,2.9221840100141225
sample2,0.5835561511159637,5.949584117307384,4.63120168948953,3.594009531106023,1.3255069401749642,0.7940489296897657,5.853143776404358,9.09666919422224,4.439580788388194,2.9880416144024635,7.855497758413877,3.76281966950331,7.165318935219588,2.0824601101749773
sample3,3.6610237606693397,7.756735081522651,3.287202912737933,9.150851518640561,9.226680345625525,7.457169979051087,2.3341235957315387,9.241799099285497,8.980155491112544,6.193104444114745,1.3627919732675253,0.7871847768622098
sample4,9.226680345625525,7.457169979051087,2.3341235957315387,9.241799099285497,8.980155491112544,6.193104444114745,1.3627919732675253,0.7871847768622098,2.7786137799686115,5.580985072931507,3.986105001111423,4.06809808299855
sample5,6.042060384378693,5.067243613080674,2.5033335886397765,1.255598970638342,5.230876711129443,7.239167088113961,9.160545063818068,6.420642383941652,2.6353850086189343,4.673300951272321,9.849797965024207,0.037376970637529316,1.2829082891319799
sample6,5.230876711129443,7.239167088113961,9.160545063818068,6.420642383941652,2.6353850086189343,4.673300951272321,9.849797965024207,0.037376970637529316,1.2829082891319799
sample7,5.230876711129443,7.239167088113961,9.160545063818068,6.420642383941652,2.6353850086189343,4.673300951272321,9.849797965024207,0.037376970637529316,1.2829082891319799
sample8,7.3947772668619525,2.0149435584063413,6.257848573319608,0.07532285829189744,2.9221840100141225,8.56808573130328,0.5835561511159637,5.949584117307384,4.63120168948953,3.594009531106023,1.3255069401749642
sample9,0.27275838151724296,3.015055618803123,9.226138221056457,6.581456889487659,1.4099517163704334,7.456736588958148,2.815948535515609,3.716849695518839,4.012773994037339,6.3469161774912575
sample10,2.9880416144024635,7.855497758413877,3.76281966950331,7.165318935219588,2.0824601101749773,6.708276822514973,3.6610237606693397,7.756735081522651,3.287202912737933,9.150851518640561,9.226680345625525,7.457169979051087
sample11,1.521122831971119,0.9016040809214443,7.3947772668619525,2.0149435584063413,6.257848573319608,0.07532285829189744,2.9221840100141225,8.56808573130328,0.5835561511159637,5.949584117307384,4.63120168948953
sample12,2.955470077295701,5.215908819590389,1.7378119637047051,0.48112546961053493,2.6566882450978566,4.83862394835309,6.871143913337768,4.6719955712316565,2.839262425562168,6.842986054231156,9.2497891982202,2.1484542728738654,9.59656928308383,2.820046538338782
sample13,2.687522132185177,1.4169250630254204,6.042060384378693,5.067243613080674,2.5033335886397765,1.255598970638342,5.230876711129443,7.239167088113961,9.160545063818068,6.420642383941652
sample14,7.3947772668619525,2.0149435584063413,6.257848573319608,0.07532285829189744,2.9221840100141225,8.56808573130328,0.5835561511159637,5.949584117307384,4.63120168948953,3.594009531106023,1.3255069401749642,0.7940489296897657,5.853143776404358,9.09666919422224
sample15,9.150851518640561,9.226680345625525,7.457169979051087,2.3341235957315387,9.241799099285497,8.980155491112544,6.193104444114745,1.3627919732675253,0.7871847768622098
sample16,2.6566882450978566,4.83862394835309,6.871143913337768,4.6719955712316565,2.839262425562168,6.842986054231156,9.2497891982202,2.1484542728738654,9.59656928308383,2.820046538338782,4.025916755973337,3.3206054606615476
sample17,3.015055618803123,9.226138221056457,6.581456889487659,1.4099517163704334,7.456736588958148,2.815948535515609,3.716849695518839,4.012773994037339,6.3469161774912575
sample18,7.566788679324671,5.9058345751138885,3.2943737272653975,1.521122831971119,0.9016040809214443,7.3947772668619525,2.0149435584063413
sample19,6.708276822514973,3.6610237606693397,7.756735081522651,3.287202912737933,9.150851518640561,9.226680345625525,7.457169979051087,2.3341235957315387,9.241799099285497,8.980155491112544,6.193104444114745
sample20,7.610484507908682,2.955470077295701,5.215908819590389,1.7378119637047051,0.48112546961053493,2.6566882450978566,4.83862394835309,6.871143913337768,4.6719955712316565
sample21,3.2943737272653975,1.521122831971119,0.9016040809214443,7.3947772668619525,2.0149435584063413,6.257848573319608,0.07532285829189744,2.9221840100141225,8.56808573130328,0.5835561511159637
sample22,7.165318935219588,2.0824601101749773,6.708276822514973,3.6610237606693397,7.756735081522651,3.287202912737933,9.150851518640561,9.226680345625525,7.457169979051087,2.3341235957315387,9.241799099285497
sample23,3.015055618803123,9.226138221056457,6.581456889487659,1.4099517163704334,7.456736588958148,2.815948535515609,3.716849695518839,4.012773994037339,6.3469161774912575,8.496783715991276
sample24,8.56808573130328,0.5835561511159637,5.949584117307384,4.63120168948953,3.594009531106023,1.3255069401749642,0.7940489296897657,5.853143776404358,9.09666919422224,4.439580788388194,2.9880416144024635
sample25,7.855497758413877,3.76281966950331,7.165318935219588,2.0824601101749773,6.708276822514973,3.6610237606693397,7.756735081522651,3.287202912737933,9.150851518640561,9.226680345625525,7.457169979051087,2.3341235957315387,9.241799099285497
sample26,2.9880416144024635,7.855497758413877,3.76281966950331,7.165318935219588,2.0824601101749773,6.708276822514973,3.6610237606693397,7.756735081522651
sample27,4.63120168948953,3.594009531106023,1.3255069401749642,0.7940489296897657,5.853143776404358,9.09666919422224,4.439580788388194,2.9880416144024635,7.855497758413877,3.76281966950331,7.165318935219588,2.0824601101749773
sample28,7.566788679324671,5.9058345751138885,3.2943737272653975,1.521122831971119,0.9016040809214443,7.3947772668619525,2.0149435584063413,6.257848573319608,0.07532285829189744,2.9221840100141225,8.56808573130328,0.5835561511159637
sample29,1.255598970638342,5.230876711129443,7.239167088113961,9.160545063818068,6.420642383941652,2.6353850086189343,4.673300951272321,9.849797965024207
sample30,4.673300951272321,9.849797965024207,0.037376970637529316,1.2829082891319799,4.57645539039577,9.013261178273883,0.9213312512898375,7.566788679324671,5.9058345751138885,3.2943737272653975,1.521122831971119,0.9016040809214443,7.3947772668619525
sample31,0.48112546961053493,2.6566882450978566,4.83862394835309,6.871143913337768,4.6719955712316565,2.839262425562168,6.842986054231156,9.2497891982202,2.1484542728738654
sample32,2.955470077295701,5.215908819590389,1.7378119637047051,0.48112546961053493,2.6566882450978566,4.83862394835309,6.871143913337768,4.6719955712316565,2.839262425562168,6.842986054231156,9.2497891982202,2.1484542728738654,9.59656928308383
sample33,2.9880416144024635,7.855497758413877,3.76281966950331,7.165318935219588,2.0824601101749773,6.708276822514973,3.6610237606693397,7.756735081522651,3.287202912737933
sample34,9.241799099285497,8.980155491112544,6.193104444114745,1.3627919732675253,0.7871847768622098,2.7786137799686115,5.580985072931507,3.986105001111423,4.06809808299855,2.568165596125167,0.27275838151724296,3.015055618803123,9.226138221056457
sample35,6.581456889487659,1.4099517163704334,7.456736588958148,2.815948535515609,3.716849695518839,4.012773994037339,6.3469161774912575,8.496783715991276,8.43885146485628,3.499859820733844
sample36,7.610484507908682,2.955470077295701,5.215908819590389,1.7378119637047051,0.48112546961053493,2.6566882450978566,4.83862394835309,6.871143913337768
sample37,2.568165596125167,0.27275838151724296,3.015055618803123,9.226138221056457,6.581456889487659,1.4099517163704334,7.456736588958148,2.815948535515609,3.716849695518839,4.012773994037339,6.3469161774912575
sample38,9.226138221056457,6.581456889487659,1.4099517163704334,7.456736588958148,2.815948535515609,3.716849695518839,4.012773994037339,6.3469161774912575,8.496783715991276,8.43885146485628
sample39,0.48112546961053493,2.6566882450978566,4.83862394835309,6.871143913337768,4.6719955712316565,2.839262425562168,6.842986054231156
sample40,5.215908819590389,1.7378119637047051,0.48112546961053493,2.6566882450978566,4.83862394835309,6.871143913337768,4.6719955712316565,2.839262425562168,6.842986054231156
sample41,6.193104444114745,1.3627919732675253,0.7871847768622098,2.7786137799686115,5.580985072931507,3.986105001111423,4.06809808299855,2.568165596125167,0.27275838151724296,3.015055618803123,9.226138221056457,6.581456889487659,1.4099517163704334
sample42,7.756735081522651,3.287202912737933,9.150851518640561,9.226680345625525,7.457169979051087,2.3341235957315387,9.241799099285497,8.980155491112544,6.193104444114745,1.3627919732675253,0.7871847768622098,2.7786137799686115,5.580985072931507
sample43,3.2943737272653975,1.521122831971119,0.9016040809214443,7.3947772668619525,2.0149435584063413,6.257848573319608,0.07532285829189744,2.9221840100141225,8.56808573130328,0.5835561511159637,5.949584117307384,4.63120168948953
sample44,7.610484507908682,2.955470077295701,5.215908819590389,1.7378119637047051,0.48112546961053493,2.6566882450978566,4.83862394835309,6.871143913337768,4.6719955712316565,2.839262425562168,6.842986054231156,9.2497891982202,2.1484542728738654
sample45,6.042060384378693,5.067243613080674,2.5033335886397765,1.255598970638342,5.230876711129443,7.239167088113961,9.160545063818068,6.420642383941652,2.6353850086189343
sample46,3.6610237606693397,7.756735081522651,3.287202912737933,9.150851518640561,9.226680345625525,7.457169979051087,2.3341235957315387
sample47,2.9221840100141225,8.56808573130328,0.5835561511159637,5.949584117307384,4.63120168948953,3.594009531106023,1.3255069401749642
sample48,5.853143776404358,9.09666919422224,4.439580788388194,2.9880416144024635,7.855497758413877,3.76281966950331,7.165318935219588,2.0824601101749773,6.708276822514973,3.6610237606693397,7.756735081522651
sample49,2.568165596125167,0.27275838151724296,3.015055618803123,9.226138221056457,6.581456889487659,1.4099517163704334,7.456736588958148,2.815948535515609,3.716849695518839,4.012773994037339,6.3469161774912575,8.496783715991276,8.43885146485628,3.499859820733844
sample50,8.980155491112544,6.193104444114745,1.3627919732675253,0.7871847768622098,2.7786137799686115,5.580985072931507,3.986105001111423,4.06809808299855,2.568165596125167,0.27275838151724296,3.015055618803123
