Sample output file
sample1,15,16,15,3,8,15,3,7,11,2,9,4,9,2
sample2,4,9,2,11,3,8,11
sample3,11,11,13,14,10,9,17,4,3,4,13,10,5,14
sample4,4,12,5,4,14,1,2,6,10,13,8,11,7
sample5,15,3,8,15,3,7,11,2
sample6,7,11,2,9,4,9,2,11
sample7,9,12,16,6,16,4,12,5,4,14,1
sample8,9,12,16,6,16,4,12,5,4,14,1,2,6,10
sample9,4,7,8,6,2,8,5,3,15,5,1
sample10,12,16,2,6,14,9,13,15,13,8,7
sample11,6,10,13,8,11,7,3,9,16,4,11
sample12,10,13,8,11,7,3,9,16,4,11,11,13,14
sample13,12,16,6,16,4,12,5,4,14,1
sample14,10,14,16,12,16,2,6,14,9,13
sample15,10,13,8,11,7,3,9,16
sample16,9,13,15,13,8,7,1,15,14,16,5
sample17,14,1,2,6,10,13,8
sample18,8,5,3,15,5,1,16,10,14,16,12
sample19,11,3,8,11,16,4,4,7,8,6,2
sample20,13,15,13,8,7,1,15,14,16,5,1
sample21,10,14,16,12,16,2,6,14,9,13,15,13,8
sample22,11,3,8,11,16,4,4,7,8,6,2,8
sample23,10,14,16,12,16,2,6,14,9,13,15
sample24,5,1,16,10,14,16,12,16,2,6
sample25,3,7,11,2,9,4,9,2
sample26,7,8,6,2,8,5,3,15,5,1,16,10,14,16
sample27,7,3,9,16,4,11,11,13,14,10
sample28,3,15,5,1,16,10,14,16,12,16,2,6,14
sample29,8,7,1,15,14,16,5,1,12,6
sample30,14,1,2,6,10,13,8,11,7,3,9
sample31,10,13,8,11,7,3,9
sample32,12,16,2,6,14,9,13
sample33,12,16,6,16,4,12,5,4,14,1,2,6,10
sample34,5,14,9,5,3,15,16,15,3,8,15
sample35,8,5,3,15,5,1,16,10
sample36,7,11,2,9,4,9,2,11,3